:0400000037110000b4
:04000100ef00c0004c
:040002007300100077
:040003006f0000008a
:04000400b7a6070094
:040005003707008039
:040006009386f611d6
:040007009307c00497
:0400080093850707ce
:0400090003a5070044
:04000a002322a70006
:04000b0003d54700d2
:04000c002324a70002
:04000d0003250700c0
:04000e00e3fea6fe69
:04000f0023200700a3
:04001000938787004b
:04001100e390b7fec3
:040012006ff05ffd2f
:04001300ffffffffed
:04001400ffff0000ea
:040015008cffffff5e
:04001600ffff0000e8
:04001700ce8cffff8d
:04001800ffff0000e6
:04001900c0ce8cffca
:04001a00ffff0000e4
:04001b00c6c0ce8c01
:04001c00ffff0000e2
:04001d00bfc6c0cecc
:04001e008cff000053
:04001f0086bfc6c012
:04002000ce8c000082
:04002100c686bfc60a
:04002200c0ce00004c
:0400230086c686bf48
:04002400c6c0000052
:04002500ff86c68606
:04002600bfc6000051
:04002700ffff86c68b
:0400280086bf00008f
:04002900ffffff8650
:04002a00c686000086
:04002b00ffffffffd5
:04002c0086c6000084
:04002d00ffffffffd3
:04002e00ff86000049
:04002f0000000000cd
:0400300000000000cc
:0400310000000000cb
:0400320000000000ca
:0400330000000000c9
:0400340000000000c8
:0400350000000000c7
:0400360000000000c6
:0400370000000000c5
:0400380000000000c4
:0400390000000000c3
:04003a0000000000c2
:04003b0000000000c1
:04003c0000000000c0
:04003d0000000000bf
:04003e0000000000be
:04003f0000000000bd
:0400400000000000bc
:0400410000000000bb
:0400420000000000ba
:0400430000000000b9
:0400440000000000b8
:0400450000000000b7
:0400460000000000b6
:0400470000000000b5
:0400480000000000b4
:0400490000000000b3
:04004a0000000000b2
:04004b0000000000b1
:04004c0000000000b0
:04004d0000000000af
:04004e0000000000ae
:04004f0000000000ad
:0400500000000000ac
:0400510000000000ab
:0400520000000000aa
:0400530000000000a9
:0400540000000000a8
:0400550000000000a7
:0400560000000000a6
:0400570000000000a5
:0400580000000000a4
:0400590000000000a3
:04005a0000000000a2
:04005b0000000000a1
:04005c0000000000a0
:04005d00000000009f
:04005e00000000009e
:04005f00000000009d
:04006000000000009c
:04006100000000009b
:04006200000000009a
:040063000000000099
:040064000000000098
:040065000000000097
:040066000000000096
:040067000000000095
:040068000000000094
:040069000000000093
:04006a000000000092
:04006b000000000091
:04006c000000000090
:04006d00000000008f
:04006e00000000008e
:04006f00000000008d
:04007000000000008c
:04007100000000008b
:04007200000000008a
:040073000000000089
:040074000000000088
:040075000000000087
:040076000000000086
:040077000000000085
:040078000000000084
:040079000000000083
:04007a000000000082
:04007b000000000081
:04007c000000000080
:04007d00000000007f
:04007e00000000007e
:04007f00000000007d
:04008000000000007c
:04008100000000007b
:04008200000000007a
:040083000000000079
:040084000000000078
:040085000000000077
:040086000000000076
:040087000000000075
:040088000000000074
:040089000000000073
:04008a000000000072
:04008b000000000071
:04008c000000000070
:04008d00000000006f
:04008e00000000006e
:04008f00000000006d
:04009000000000006c
:04009100000000006b
:04009200000000006a
:040093000000000069
:040094000000000068
:040095000000000067
:040096000000000066
:040097000000000065
:040098000000000064
:040099000000000063
:04009a000000000062
:04009b000000000061
:04009c000000000060
:04009d00000000005f
:04009e00000000005e
:04009f00000000005d
:0400a000000000005c
:0400a100000000005b
:0400a200000000005a
:0400a3000000000059
:0400a4000000000058
:0400a5000000000057
:0400a6000000000056
:0400a7000000000055
:0400a8000000000054
:0400a9000000000053
:0400aa000000000052
:0400ab000000000051
:0400ac000000000050
:0400ad00000000004f
:0400ae00000000004e
:0400af00000000004d
:0400b000000000004c
:0400b100000000004b
:0400b200000000004a
:0400b3000000000049
:0400b4000000000048
:0400b5000000000047
:0400b6000000000046
:0400b7000000000045
:0400b8000000000044
:0400b9000000000043
:0400ba000000000042
:0400bb000000000041
:0400bc000000000040
:0400bd00000000003f
:0400be00000000003e
:0400bf00000000003d
:0400c000000000003c
:0400c100000000003b
:0400c200000000003a
:0400c3000000000039
:0400c4000000000038
:0400c5000000000037
:0400c6000000000036
:0400c7000000000035
:0400c8000000000034
:0400c9000000000033
:0400ca000000000032
:0400cb000000000031
:0400cc000000000030
:0400cd00000000002f
:0400ce00000000002e
:0400cf00000000002d
:0400d000000000002c
:0400d100000000002b
:0400d200000000002a
:0400d3000000000029
:0400d4000000000028
:0400d5000000000027
:0400d6000000000026
:0400d7000000000025
:0400d8000000000024
:0400d9000000000023
:0400da000000000022
:0400db000000000021
:0400dc000000000020
:0400dd00000000001f
:0400de00000000001e
:0400df00000000001d
:0400e000000000001c
:0400e100000000001b
:0400e200000000001a
:0400e3000000000019
:0400e4000000000018
:0400e5000000000017
:0400e6000000000016
:0400e7000000000015
:0400e8000000000014
:0400e9000000000013
:0400ea000000000012
:0400eb000000000011
:0400ec000000000010
:0400ed00000000000f
:0400ee00000000000e
:0400ef00000000000d
:0400f000000000000c
:0400f100000000000b
:0400f200000000000a
:0400f3000000000009
:0400f4000000000008
:0400f5000000000007
:0400f6000000000006
:0400f7000000000005
:0400f8000000000004
:0400f9000000000003
:0400fa000000000002
:0400fb000000000001
:0400fc000000000000
:0400fd0000000000ff
:0400fe0000000000fe
:0400ff0000000000fd
:0401000000000000fb
:0401010000000000fa
:0401020000000000f9
:0401030000000000f8
:0401040000000000f7
:0401050000000000f6
:0401060000000000f5
:0401070000000000f4
:0401080000000000f3
:0401090000000000f2
:04010a0000000000f1
:04010b0000000000f0
:04010c0000000000ef
:04010d0000000000ee
:04010e0000000000ed
:04010f0000000000ec
:0401100000000000eb
:0401110000000000ea
:0401120000000000e9
:0401130000000000e8
:0401140000000000e7
:0401150000000000e6
:0401160000000000e5
:0401170000000000e4
:0401180000000000e3
:0401190000000000e2
:04011a0000000000e1
:04011b0000000000e0
:04011c0000000000df
:04011d0000000000de
:04011e0000000000dd
:04011f0000000000dc
:0401200000000000db
:0401210000000000da
:0401220000000000d9
:0401230000000000d8
:0401240000000000d7
:0401250000000000d6
:0401260000000000d5
:0401270000000000d4
:0401280000000000d3
:0401290000000000d2
:04012a0000000000d1
:04012b0000000000d0
:04012c0000000000cf
:04012d0000000000ce
:04012e0000000000cd
:04012f0000000000cc
:0401300000000000cb
:0401310000000000ca
:0401320000000000c9
:0401330000000000c8
:0401340000000000c7
:0401350000000000c6
:0401360000000000c5
:0401370000000000c4
:0401380000000000c3
:0401390000000000c2
:04013a0000000000c1
:04013b0000000000c0
:04013c0000000000bf
:04013d0000000000be
:04013e0000000000bd
:04013f0000000000bc
:0401400000000000bb
:0401410000000000ba
:0401420000000000b9
:0401430000000000b8
:0401440000000000b7
:0401450000000000b6
:0401460000000000b5
:0401470000000000b4
:0401480000000000b3
:0401490000000000b2
:04014a0000000000b1
:04014b0000000000b0
:04014c0000000000af
:04014d0000000000ae
:04014e0000000000ad
:04014f0000000000ac
:0401500000000000ab
:0401510000000000aa
:0401520000000000a9
:0401530000000000a8
:0401540000000000a7
:0401550000000000a6
:0401560000000000a5
:0401570000000000a4
:0401580000000000a3
:0401590000000000a2
:04015a0000000000a1
:04015b0000000000a0
:04015c00000000009f
:04015d00000000009e
:04015e00000000009d
:04015f00000000009c
:04016000000000009b
:04016100000000009a
:040162000000000099
:040163000000000098
:040164000000000097
:040165000000000096
:040166000000000095
:040167000000000094
:040168000000000093
:040169000000000092
:04016a000000000091
:04016b000000000090
:04016c00000000008f
:04016d00000000008e
:04016e00000000008d
:04016f00000000008c
:04017000000000008b
:04017100000000008a
:040172000000000089
:040173000000000088
:040174000000000087
:040175000000000086
:040176000000000085
:040177000000000084
:040178000000000083
:040179000000000082
:04017a000000000081
:04017b000000000080
:04017c00000000007f
:04017d00000000007e
:04017e00000000007d
:04017f00000000007c
:04018000000000007b
:04018100000000007a
:040182000000000079
:040183000000000078
:040184000000000077
:040185000000000076
:040186000000000075
:040187000000000074
:040188000000000073
:040189000000000072
:04018a000000000071
:04018b000000000070
:04018c00000000006f
:04018d00000000006e
:04018e00000000006d
:04018f00000000006c
:04019000000000006b
:04019100000000006a
:040192000000000069
:040193000000000068
:040194000000000067
:040195000000000066
:040196000000000065
:040197000000000064
:040198000000000063
:040199000000000062
:04019a000000000061
:04019b000000000060
:04019c00000000005f
:04019d00000000005e
:04019e00000000005d
:04019f00000000005c
:0401a000000000005b
:0401a100000000005a
:0401a2000000000059
:0401a3000000000058
:0401a4000000000057
:0401a5000000000056
:0401a6000000000055
:0401a7000000000054
:0401a8000000000053
:0401a9000000000052
:0401aa000000000051
:0401ab000000000050
:0401ac00000000004f
:0401ad00000000004e
:0401ae00000000004d
:0401af00000000004c
:0401b000000000004b
:0401b100000000004a
:0401b2000000000049
:0401b3000000000048
:0401b4000000000047
:0401b5000000000046
:0401b6000000000045
:0401b7000000000044
:0401b8000000000043
:0401b9000000000042
:0401ba000000000041
:0401bb000000000040
:0401bc00000000003f
:0401bd00000000003e
:0401be00000000003d
:0401bf00000000003c
:0401c000000000003b
:0401c100000000003a
:0401c2000000000039
:0401c3000000000038
:0401c4000000000037
:0401c5000000000036
:0401c6000000000035
:0401c7000000000034
:0401c8000000000033
:0401c9000000000032
:0401ca000000000031
:0401cb000000000030
:0401cc00000000002f
:0401cd00000000002e
:0401ce00000000002d
:0401cf00000000002c
:0401d000000000002b
:0401d100000000002a
:0401d2000000000029
:0401d3000000000028
:0401d4000000000027
:0401d5000000000026
:0401d6000000000025
:0401d7000000000024
:0401d8000000000023
:0401d9000000000022
:0401da000000000021
:0401db000000000020
:0401dc00000000001f
:0401dd00000000001e
:0401de00000000001d
:0401df00000000001c
:0401e000000000001b
:0401e100000000001a
:0401e2000000000019
:0401e3000000000018
:0401e4000000000017
:0401e5000000000016
:0401e6000000000015
:0401e7000000000014
:0401e8000000000013
:0401e9000000000012
:0401ea000000000011
:0401eb000000000010
:0401ec00000000000f
:0401ed00000000000e
:0401ee00000000000d
:0401ef00000000000c
:0401f000000000000b
:0401f100000000000a
:0401f2000000000009
:0401f3000000000008
:0401f4000000000007
:0401f5000000000006
:0401f6000000000005
:0401f7000000000004
:0401f8000000000003
:0401f9000000000002
:0401fa000000000001
:0401fb000000000000
:0401fc0000000000ff
:0401fd0000000000fe
:0401fe0000000000fd
:0401ff0000000000fc
:0402000000000000fa
:0402010000000000f9
:0402020000000000f8
:0402030000000000f7
:0402040000000000f6
:0402050000000000f5
:0402060000000000f4
:0402070000000000f3
:0402080000000000f2
:0402090000000000f1
:04020a0000000000f0
:04020b0000000000ef
:04020c0000000000ee
:04020d0000000000ed
:04020e0000000000ec
:04020f0000000000eb
:0402100000000000ea
:0402110000000000e9
:0402120000000000e8
:0402130000000000e7
:0402140000000000e6
:0402150000000000e5
:0402160000000000e4
:0402170000000000e3
:0402180000000000e2
:0402190000000000e1
:04021a0000000000e0
:04021b0000000000df
:04021c0000000000de
:04021d0000000000dd
:04021e0000000000dc
:04021f0000000000db
:0402200000000000da
:0402210000000000d9
:0402220000000000d8
:0402230000000000d7
:0402240000000000d6
:0402250000000000d5
:0402260000000000d4
:0402270000000000d3
:0402280000000000d2
:0402290000000000d1
:04022a0000000000d0
:04022b0000000000cf
:04022c0000000000ce
:04022d0000000000cd
:04022e0000000000cc
:04022f0000000000cb
:0402300000000000ca
:0402310000000000c9
:0402320000000000c8
:0402330000000000c7
:0402340000000000c6
:0402350000000000c5
:0402360000000000c4
:0402370000000000c3
:0402380000000000c2
:0402390000000000c1
:04023a0000000000c0
:04023b0000000000bf
:04023c0000000000be
:04023d0000000000bd
:04023e0000000000bc
:04023f0000000000bb
:0402400000000000ba
:0402410000000000b9
:0402420000000000b8
:0402430000000000b7
:0402440000000000b6
:0402450000000000b5
:0402460000000000b4
:0402470000000000b3
:0402480000000000b2
:0402490000000000b1
:04024a0000000000b0
:04024b0000000000af
:04024c0000000000ae
:04024d0000000000ad
:04024e0000000000ac
:04024f0000000000ab
:0402500000000000aa
:0402510000000000a9
:0402520000000000a8
:0402530000000000a7
:0402540000000000a6
:0402550000000000a5
:0402560000000000a4
:0402570000000000a3
:0402580000000000a2
:0402590000000000a1
:04025a0000000000a0
:04025b00000000009f
:04025c00000000009e
:04025d00000000009d
:04025e00000000009c
:04025f00000000009b
:04026000000000009a
:040261000000000099
:040262000000000098
:040263000000000097
:040264000000000096
:040265000000000095
:040266000000000094
:040267000000000093
:040268000000000092
:040269000000000091
:04026a000000000090
:04026b00000000008f
:04026c00000000008e
:04026d00000000008d
:04026e00000000008c
:04026f00000000008b
:04027000000000008a
:040271000000000089
:040272000000000088
:040273000000000087
:040274000000000086
:040275000000000085
:040276000000000084
:040277000000000083
:040278000000000082
:040279000000000081
:04027a000000000080
:04027b00000000007f
:04027c00000000007e
:04027d00000000007d
:04027e00000000007c
:04027f00000000007b
:04028000000000007a
:040281000000000079
:040282000000000078
:040283000000000077
:040284000000000076
:040285000000000075
:040286000000000074
:040287000000000073
:040288000000000072
:040289000000000071
:04028a000000000070
:04028b00000000006f
:04028c00000000006e
:04028d00000000006d
:04028e00000000006c
:04028f00000000006b
:04029000000000006a
:040291000000000069
:040292000000000068
:040293000000000067
:040294000000000066
:040295000000000065
:040296000000000064
:040297000000000063
:040298000000000062
:040299000000000061
:04029a000000000060
:04029b00000000005f
:04029c00000000005e
:04029d00000000005d
:04029e00000000005c
:04029f00000000005b
:0402a000000000005a
:0402a1000000000059
:0402a2000000000058
:0402a3000000000057
:0402a4000000000056
:0402a5000000000055
:0402a6000000000054
:0402a7000000000053
:0402a8000000000052
:0402a9000000000051
:0402aa000000000050
:0402ab00000000004f
:0402ac00000000004e
:0402ad00000000004d
:0402ae00000000004c
:0402af00000000004b
:0402b000000000004a
:0402b1000000000049
:0402b2000000000048
:0402b3000000000047
:0402b4000000000046
:0402b5000000000045
:0402b6000000000044
:0402b7000000000043
:0402b8000000000042
:0402b9000000000041
:0402ba000000000040
:0402bb00000000003f
:0402bc00000000003e
:0402bd00000000003d
:0402be00000000003c
:0402bf00000000003b
:0402c000000000003a
:0402c1000000000039
:0402c2000000000038
:0402c3000000000037
:0402c4000000000036
:0402c5000000000035
:0402c6000000000034
:0402c7000000000033
:0402c8000000000032
:0402c9000000000031
:0402ca000000000030
:0402cb00000000002f
:0402cc00000000002e
:0402cd00000000002d
:0402ce00000000002c
:0402cf00000000002b
:0402d000000000002a
:0402d1000000000029
:0402d2000000000028
:0402d3000000000027
:0402d4000000000026
:0402d5000000000025
:0402d6000000000024
:0402d7000000000023
:0402d8000000000022
:0402d9000000000021
:0402da000000000020
:0402db00000000001f
:0402dc00000000001e
:0402dd00000000001d
:0402de00000000001c
:0402df00000000001b
:0402e000000000001a
:0402e1000000000019
:0402e2000000000018
:0402e3000000000017
:0402e4000000000016
:0402e5000000000015
:0402e6000000000014
:0402e7000000000013
:0402e8000000000012
:0402e9000000000011
:0402ea000000000010
:0402eb00000000000f
:0402ec00000000000e
:0402ed00000000000d
:0402ee00000000000c
:0402ef00000000000b
:0402f000000000000a
:0402f1000000000009
:0402f2000000000008
:0402f3000000000007
:0402f4000000000006
:0402f5000000000005
:0402f6000000000004
:0402f7000000000003
:0402f8000000000002
:0402f9000000000001
:0402fa000000000000
:0402fb0000000000ff
:0402fc0000000000fe
:0402fd0000000000fd
:0402fe0000000000fc
:0402ff0000000000fb
:0403000000000000f9
:0403010000000000f8
:0403020000000000f7
:0403030000000000f6
:0403040000000000f5
:0403050000000000f4
:0403060000000000f3
:0403070000000000f2
:0403080000000000f1
:0403090000000000f0
:04030a0000000000ef
:04030b0000000000ee
:04030c0000000000ed
:04030d0000000000ec
:04030e0000000000eb
:04030f0000000000ea
:0403100000000000e9
:0403110000000000e8
:0403120000000000e7
:0403130000000000e6
:0403140000000000e5
:0403150000000000e4
:0403160000000000e3
:0403170000000000e2
:0403180000000000e1
:0403190000000000e0
:04031a0000000000df
:04031b0000000000de
:04031c0000000000dd
:04031d0000000000dc
:04031e0000000000db
:04031f0000000000da
:0403200000000000d9
:0403210000000000d8
:0403220000000000d7
:0403230000000000d6
:0403240000000000d5
:0403250000000000d4
:0403260000000000d3
:0403270000000000d2
:0403280000000000d1
:0403290000000000d0
:04032a0000000000cf
:04032b0000000000ce
:04032c0000000000cd
:04032d0000000000cc
:04032e0000000000cb
:04032f0000000000ca
:0403300000000000c9
:0403310000000000c8
:0403320000000000c7
:0403330000000000c6
:0403340000000000c5
:0403350000000000c4
:0403360000000000c3
:0403370000000000c2
:0403380000000000c1
:0403390000000000c0
:04033a0000000000bf
:04033b0000000000be
:04033c0000000000bd
:04033d0000000000bc
:04033e0000000000bb
:04033f0000000000ba
:0403400000000000b9
:0403410000000000b8
:0403420000000000b7
:0403430000000000b6
:0403440000000000b5
:0403450000000000b4
:0403460000000000b3
:0403470000000000b2
:0403480000000000b1
:0403490000000000b0
:04034a0000000000af
:04034b0000000000ae
:04034c0000000000ad
:04034d0000000000ac
:04034e0000000000ab
:04034f0000000000aa
:0403500000000000a9
:0403510000000000a8
:0403520000000000a7
:0403530000000000a6
:0403540000000000a5
:0403550000000000a4
:0403560000000000a3
:0403570000000000a2
:0403580000000000a1
:0403590000000000a0
:04035a00000000009f
:04035b00000000009e
:04035c00000000009d
:04035d00000000009c
:04035e00000000009b
:04035f00000000009a
:040360000000000099
:040361000000000098
:040362000000000097
:040363000000000096
:040364000000000095
:040365000000000094
:040366000000000093
:040367000000000092
:040368000000000091
:040369000000000090
:04036a00000000008f
:04036b00000000008e
:04036c00000000008d
:04036d00000000008c
:04036e00000000008b
:04036f00000000008a
:040370000000000089
:040371000000000088
:040372000000000087
:040373000000000086
:040374000000000085
:040375000000000084
:040376000000000083
:040377000000000082
:040378000000000081
:040379000000000080
:04037a00000000007f
:04037b00000000007e
:04037c00000000007d
:04037d00000000007c
:04037e00000000007b
:04037f00000000007a
:040380000000000079
:040381000000000078
:040382000000000077
:040383000000000076
:040384000000000075
:040385000000000074
:040386000000000073
:040387000000000072
:040388000000000071
:040389000000000070
:04038a00000000006f
:04038b00000000006e
:04038c00000000006d
:04038d00000000006c
:04038e00000000006b
:04038f00000000006a
:040390000000000069
:040391000000000068
:040392000000000067
:040393000000000066
:040394000000000065
:040395000000000064
:040396000000000063
:040397000000000062
:040398000000000061
:040399000000000060
:04039a00000000005f
:04039b00000000005e
:04039c00000000005d
:04039d00000000005c
:04039e00000000005b
:04039f00000000005a
:0403a0000000000059
:0403a1000000000058
:0403a2000000000057
:0403a3000000000056
:0403a4000000000055
:0403a5000000000054
:0403a6000000000053
:0403a7000000000052
:0403a8000000000051
:0403a9000000000050
:0403aa00000000004f
:0403ab00000000004e
:0403ac00000000004d
:0403ad00000000004c
:0403ae00000000004b
:0403af00000000004a
:0403b0000000000049
:0403b1000000000048
:0403b2000000000047
:0403b3000000000046
:0403b4000000000045
:0403b5000000000044
:0403b6000000000043
:0403b7000000000042
:0403b8000000000041
:0403b9000000000040
:0403ba00000000003f
:0403bb00000000003e
:0403bc00000000003d
:0403bd00000000003c
:0403be00000000003b
:0403bf00000000003a
:0403c0000000000039
:0403c1000000000038
:0403c2000000000037
:0403c3000000000036
:0403c4000000000035
:0403c5000000000034
:0403c6000000000033
:0403c7000000000032
:0403c8000000000031
:0403c9000000000030
:0403ca00000000002f
:0403cb00000000002e
:0403cc00000000002d
:0403cd00000000002c
:0403ce00000000002b
:0403cf00000000002a
:0403d0000000000029
:0403d1000000000028
:0403d2000000000027
:0403d3000000000026
:0403d4000000000025
:0403d5000000000024
:0403d6000000000023
:0403d7000000000022
:0403d8000000000021
:0403d9000000000020
:0403da00000000001f
:0403db00000000001e
:0403dc00000000001d
:0403dd00000000001c
:0403de00000000001b
:0403df00000000001a
:0403e0000000000019
:0403e1000000000018
:0403e2000000000017
:0403e3000000000016
:0403e4000000000015
:0403e5000000000014
:0403e6000000000013
:0403e7000000000012
:0403e8000000000011
:0403e9000000000010
:0403ea00000000000f
:0403eb00000000000e
:0403ec00000000000d
:0403ed00000000000c
:0403ee00000000000b
:0403ef00000000000a
:0403f0000000000009
:0403f1000000000008
:0403f2000000000007
:0403f3000000000006
:0403f4000000000005
:0403f5000000000004
:0403f6000000000003
:0403f7000000000002
:0403f8000000000001
:0403f9000000000000
:0403fa0000000000ff
:0403fb0000000000fe
:0403fc0000000000fd
:0403fd0000000000fc
:0403fe0000000000fb
:0403ff0000000000fa
:00000001FF